https://videos-fms.jwpsrv.com/63288fc2_0x1db0d01960d18279bea53bbdfbebf91c97a55748/content/conversions/bxiif4yb/videos/PcwNe77M-33934865.mp4
https://videos-fms.jwpsrv.com/63288fc2_0x2b6f4ec15bd11b0d769b0bc113e96c87558477f5/content/conversions/bxiif4yb/videos/7ctVgD7r-33934865.mp4
https://videos-fms.jwpsrv.com/63288fc2_0xc8195b679fa7549cde076f5f3f2de1d18024fc22/content/conversions/bxiif4yb/videos/x0sb8ArJ-33934865.mp4
https://videos-fms.jwpsrv.com/63288fc2_0x8e61312087aa3c4dc11397e51cdd553feae47891/content/conversions/bxiif4yb/videos/GYdehsqq-33934865.mp4
https://videos-fms.jwpsrv.com/63288fc2_0xaa2aa83c5cb0d43f037df10da9947aabeb0b78b5/content/conversions/bxiif4yb/videos/5PLhv7zJ-33934865.mp4
https://videos-fms.jwpsrv.com/63288fc2_0xba18f8e31a5016b913e74932e07c7c34e6265ff0/content/conversions/bxiif4yb/videos/NQKwvp34-33934865.mp4
https://videos-fms.jwpsrv.com/63288fc2_0x899497edfd3123877bd6249315025a46a37da0fd/content/conversions/bxiif4yb/videos/l5I3VFVa-33934865.mp4
https://videos-fms.jwpsrv.com/63288fc2_0xe517326c05b636073bba9a9c17c55fa9aeca89ca/content/conversions/bxiif4yb/videos/H2prDIqB-33934865.mp4

youtube-dl -a ~/Documents/VisualStudioCode\ Repos/Gitlab/Website-MH-01/private/Rehaburls.txt
